digraph  { 
mindist=0;
ranksep=0;
nodesep=0;
node[shape=box,margin="0,0",width=1, height=0.5];
edge [style=invis];
Legend;
graphics[fontcolor="#a6cee3"];
gui[fontcolor="#1f78b4"];
io[fontcolor="#b2df8a"];
networking[fontcolor="#33a02c"];
sound[fontcolor="#fb9a99"];
sql[fontcolor="#e31a1c"];
no_match[fontcolor="black"];
Legend -> graphics;
graphics->gui;
gui->io;
io->networking;
networking->sound;
sound->sql;
sql->no_match;
edge [constraint=false];
}